<!-- TODO: Pindahkan ke external css -->
<style>
	.error {
		color: #dd4b39;
	}
</style>
<div class="content-wrapper">
	<?php $this->load->view("surat/form/breadcrumb.php"); ?>
	<section class="content">
		<div class="row">
			<div class="col-md-12">
				<div class="box box-info">
					<div class="box-header with-border tdk-permohonan tdk-periksa">
						<a href="<?=site_url("surat")?>" class="btn btn-social btn-flat btn-info btn-sm btn-sm visible-xs-block visible-sm-inline-block visible-md-inline-block visible-lg-inline-block"  title="Kembali Ke Daftar Wilayah">
							<i class="fa fa-arrow-circle-left "></i>Kembali Ke Daftar Cetak Surat
						</a>
					</div>
					<div class="box-body">
						<form id="main" name="main" method="POST" class="form-horizontal">
							<div class="form-group">
								<label for="nik"  class="col-sm-3 control-label">NIK / Nama</label>
								<div class="col-sm-6 col-lg-4">
									<select class="form-control required input-sm select2" id="nik" name="nik" style ="width:100%;" onchange="formAction('main')">
										<option value="">--  Cari NIK / Nama Penduduk --</option>
										<?php foreach ($penduduk as $data): ?>
											<option value="<?= $data['id']?>" <?php if ($individu['nik']==$data['nik']): ?>selected<?php endif; ?>>NIK : <?= $data['nik']." - ".$data['nama']?></option>
										<?php endforeach;?>
									</select>
								</div>
							</div>
						</form>
						<form id="validasi" action="<?= $form_action?>" method="POST" target="_blank" class="form-surat form-horizontal">
							<input type="hidden" id="url_surat" name="url_surat" value="<?= $url ?>">
							<input type="hidden" id="url_remote" name="url_remote" value="<?= site_url('surat/nomor_surat_duplikat')?>">
							<?php if ($individu): ?>
								<?php include("donjo-app/views/surat/form/konfirmasi_pemohon.php"); ?>
							<?php	endif; ?>
							<div class="row jar_form">
								<label for="nomor" class="col-sm-3"></label>
								<div class="col-sm-8">
									<input class="required" type="hidden" name="nik" value="<?= $individu['id']?>">
								</div>
							</div>
							<?php include("donjo-app/views/surat/form/nomor_surat.php"); ?>
							<div class="form-group">
								<label for="keperluan"  class="col-sm-3 control-label">Keperluan</label>
								<div class="col-sm-8">
									<textarea name="keperluan" class="form-control input-sm required" placeholder="Keperluan"></textarea>
								</div>
							</div>
							<div class="form-group">
								<label for="keterangan"  class="col-sm-3 control-label">Keterangan</label>
								<div class="col-sm-8">
									<textarea  id="keterangan" class="form-control input-sm required" placeholder="Keterangan" name="keterangan"></textarea>
								</div>
							</div>
							<?php include("donjo-app/views/surat/form/tgl_berlaku.php"); ?>
							<?php include("donjo-app/views/surat/form/_pamong.php"); ?>
						</form>
					</div>
					<?php include("donjo-app/views/surat/form/tombol_cetak.php"); ?>
				</div>
			</div>
		</div>
	</section>
</div>
